Number of Client who submitted request: 100

Configuration message number: 1058100
Template advertisement message number: 152306
Negotiation request message number: 4279
Negotiation message number: 894
Total client inquiry message: 11974

Total Registered service number: 14753
Avergate types of templates registered in gateways: 105
Gateway has no connection to any hosts: 22

The number of requests is: 271
The number of unprocessed requests is: 0
The negotiation fail, citizen didn't get the response number: 10
The negotiation success, citizen didn't get the response number: 13

Average Reponse Time in ms: 43679
Average Reponse Time in min: 0

Failure number: 84
Failure reason_Citizen has no connection to any gateway: 3
Failure reason_Gateway can't connect to the candidate provider: 1
Failure reason_Negotiation request forwarding exceed the limit: 0
Failure reason_Client inquiry message out of limit: 0
Failure reason_No suitable services: 5
Failure reason_Provider and user can't make an agreement: 68
Failure reason_Negotiation time out: 7
Failure reason_User QoS requirements don't match the advertised templates: 0
Failure reason_Unavailable negotiation interface: 0

Success number: 187
E2E average negotiation response time: 649 million seconds
E2E average negotiation rounds: 3
