Number of Client who submitted request: 100

Configuration message number: 443577
Template advertisement message number: 5524
Negotiation request message number: 20038
Negotiation message number: 21
Total client inquiry message: 30640

Total Registered service number: 926
Avergate types of templates registered in gateways: 10
Gateway has no connection to any hosts: 95

The number of requests is: 271
The number of unprocessed requests is: 0
The negotiation fail, citizen didn't get the response number: 45
The negotiation success, citizen didn't get the response number: 1

Average Reponse Time in ms: 53106
Average Reponse Time in min: 0

Failure number: 266
Failure reason_Citizen has no connection to any gateway: 0
Failure reason_Gateway can't connect to the candidate provider: 4
Failure reason_Negotiation request forwarding exceed the limit: 0
Failure reason_Client inquiry message out of limit: 0
Failure reason_No suitable services: 242
Failure reason_Provider and user can't make an agreement: 2
Failure reason_Negotiation time out: 18
Failure reason_User QoS requirements don't match the advertised templates: 0
Failure reason_Unavailable negotiation interface: 0

Success number: 5
E2E average negotiation response time: 344 million seconds
E2E average negotiation rounds: 2
