0-th Successful Negotiation rounds = 9
1-th Successful Negotiation rounds = 6
2-th Successful Negotiation rounds = 1
3-th Successful Negotiation rounds = 1
4-th Successful Negotiation rounds = 1
5-th Successful Negotiation rounds = 1
6-th Successful Negotiation rounds = 1
7-th Successful Negotiation rounds = 9
8-th Successful Negotiation rounds = 1
9-th Successful Negotiation rounds = 6
10-th Successful Negotiation rounds = 6
11-th Successful Negotiation rounds = 8
12-th Successful Negotiation rounds = 7
13-th Successful Negotiation rounds = 8
14-th Successful Negotiation rounds = 1
15-th Successful Negotiation rounds = 5
16-th Successful Negotiation rounds = 7
17-th Successful Negotiation rounds = 6
18-th Successful Negotiation rounds = 9
19-th Successful Negotiation rounds = 1
20-th Successful Negotiation rounds = 1
21-th Successful Negotiation rounds = 2
22-th Successful Negotiation rounds = 1
23-th Successful Negotiation rounds = 5
24-th Successful Negotiation rounds = 1
25-th Successful Negotiation rounds = 1
26-th Successful Negotiation rounds = 7
27-th Successful Negotiation rounds = 4
28-th Successful Negotiation rounds = 1
29-th Successful Negotiation rounds = 8
30-th Successful Negotiation rounds = 1
31-th Successful Negotiation rounds = 1
32-th Successful Negotiation rounds = 1
33-th Successful Negotiation rounds = 1
34-th Successful Negotiation rounds = 5
35-th Successful Negotiation rounds = 5
36-th Successful Negotiation rounds = 1
37-th Successful Negotiation rounds = 8
38-th Successful Negotiation rounds = 1
39-th Successful Negotiation rounds = 5
40-th Successful Negotiation rounds = 1
41-th Successful Negotiation rounds = 1
42-th Successful Negotiation rounds = 6
43-th Successful Negotiation rounds = 6
44-th Successful Negotiation rounds = 1
45-th Successful Negotiation rounds = 1
46-th Successful Negotiation rounds = 8
47-th Successful Negotiation rounds = 1
48-th Successful Negotiation rounds = 1
49-th Successful Negotiation rounds = 4
50-th Successful Negotiation rounds = 6
51-th Successful Negotiation rounds = 6
52-th Successful Negotiation rounds = 9
53-th Successful Negotiation rounds = 3
54-th Successful Negotiation rounds = 9
55-th Successful Negotiation rounds = 7
56-th Successful Negotiation rounds = 1
57-th Successful Negotiation rounds = 5
58-th Successful Negotiation rounds = 1
59-th Successful Negotiation rounds = 4
60-th Successful Negotiation rounds = 6
61-th Successful Negotiation rounds = 6
62-th Successful Negotiation rounds = 8
63-th Successful Negotiation rounds = 11
64-th Successful Negotiation rounds = 1
65-th Successful Negotiation rounds = 10
66-th Successful Negotiation rounds = 1
67-th Successful Negotiation rounds = 7
68-th Successful Negotiation rounds = 1
69-th Successful Negotiation rounds = 1
70-th Successful Negotiation rounds = 9
71-th Successful Negotiation rounds = 6
72-th Successful Negotiation rounds = 1
73-th Successful Negotiation rounds = 1
74-th Successful Negotiation rounds = 1
75-th Successful Negotiation rounds = 1
76-th Successful Negotiation rounds = 8
77-th Successful Negotiation rounds = 1
78-th Successful Negotiation rounds = 8
79-th Successful Negotiation rounds = 11
80-th Successful Negotiation rounds = 1
81-th Successful Negotiation rounds = 1
82-th Successful Negotiation rounds = 6
83-th Successful Negotiation rounds = 1
84-th Successful Negotiation rounds = 1
85-th Successful Negotiation rounds = 1
86-th Successful Negotiation rounds = 1
87-th Successful Negotiation rounds = 5
88-th Successful Negotiation rounds = 1
89-th Successful Negotiation rounds = 1
90-th Successful Negotiation rounds = 1
91-th Successful Negotiation rounds = 8
92-th Successful Negotiation rounds = 1
93-th Successful Negotiation rounds = 5
94-th Successful Negotiation rounds = 1
95-th Successful Negotiation rounds = 1
96-th Successful Negotiation rounds = 1
97-th Successful Negotiation rounds = 6
98-th Successful Negotiation rounds = 1
99-th Successful Negotiation rounds = 9
100-th Successful Negotiation rounds = 5
101-th Successful Negotiation rounds = 8
102-th Successful Negotiation rounds = 1
103-th Successful Negotiation rounds = 1
104-th Successful Negotiation rounds = 1
