Number of Client who submitted request: 100

Configuration message number: 47883
Template advertisement message number: 10105
Negotiation request message number: 6075
Negotiation message number: 1578
Total client inquiry message: 3801

Total Registered service number: 3294
Avergate types of templates registered in gateways: 37
Gateway has no connection to any hosts: 3

The number of requests is: 271
The number of unprocessed requests is: 0
The negotiation fail, citizen didn't get the response number: 31
The negotiation success, citizen didn't get the response number: 3

Average Reponse Time in ms: 81437
Average Reponse Time in min: 1

Failure number: 196
Failure reason_Citizen has no connection to any gateway: 1
Failure reason_Gateway can't connect to the candidate provider: 0
Failure reason_Negotiation request forwarding exceed the limit: 0
Failure reason_Client inquiry message out of limit: 0
Failure reason_No suitable services: 16
Failure reason_Provider and user can't make an agreement: 144
Failure reason_Negotiation time out: 35
Failure reason_User QoS requirements don't match the advertised templates: 0
Failure reason_Unavailable negotiation interface: 0

Success number: 75
E2E average negotiation response time: 1556 million seconds
E2E average negotiation rounds: 7
