0-th Successful Negotiation rounds = 6
1-th Successful Negotiation rounds = 7
2-th Successful Negotiation rounds = 5
3-th Successful Negotiation rounds = 5
4-th Successful Negotiation rounds = 5
5-th Successful Negotiation rounds = 8
6-th Successful Negotiation rounds = 6
7-th Successful Negotiation rounds = 7
8-th Successful Negotiation rounds = 8
9-th Successful Negotiation rounds = 1
10-th Successful Negotiation rounds = 6
11-th Successful Negotiation rounds = 7
12-th Successful Negotiation rounds = 1
13-th Successful Negotiation rounds = 10
14-th Successful Negotiation rounds = 7
15-th Successful Negotiation rounds = 6
16-th Successful Negotiation rounds = 9
17-th Successful Negotiation rounds = 3
18-th Successful Negotiation rounds = 10
19-th Successful Negotiation rounds = 5
20-th Successful Negotiation rounds = 6
21-th Successful Negotiation rounds = 6
22-th Successful Negotiation rounds = 11
23-th Successful Negotiation rounds = 7
24-th Successful Negotiation rounds = 5
25-th Successful Negotiation rounds = 4
26-th Successful Negotiation rounds = 6
27-th Successful Negotiation rounds = 7
28-th Successful Negotiation rounds = 11
29-th Successful Negotiation rounds = 6
30-th Successful Negotiation rounds = 5
31-th Successful Negotiation rounds = 11
32-th Successful Negotiation rounds = 5
33-th Successful Negotiation rounds = 7
34-th Successful Negotiation rounds = 6
35-th Successful Negotiation rounds = 7
36-th Successful Negotiation rounds = 7
37-th Successful Negotiation rounds = 8
38-th Successful Negotiation rounds = 1
39-th Successful Negotiation rounds = 8
40-th Successful Negotiation rounds = 6
41-th Successful Negotiation rounds = 6
42-th Successful Negotiation rounds = 4
43-th Successful Negotiation rounds = 7
44-th Successful Negotiation rounds = 10
45-th Successful Negotiation rounds = 5
46-th Successful Negotiation rounds = 6
47-th Successful Negotiation rounds = 1
48-th Successful Negotiation rounds = 9
49-th Successful Negotiation rounds = 17
50-th Successful Negotiation rounds = 1
51-th Successful Negotiation rounds = 5
52-th Successful Negotiation rounds = 1
53-th Successful Negotiation rounds = 5
54-th Successful Negotiation rounds = 1
55-th Successful Negotiation rounds = 5
56-th Successful Negotiation rounds = 6
57-th Successful Negotiation rounds = 7
58-th Successful Negotiation rounds = 7
59-th Successful Negotiation rounds = 8
60-th Successful Negotiation rounds = 6
61-th Successful Negotiation rounds = 3
62-th Successful Negotiation rounds = 14
63-th Successful Negotiation rounds = 6
64-th Successful Negotiation rounds = 6
65-th Successful Negotiation rounds = 9
66-th Successful Negotiation rounds = 5
67-th Successful Negotiation rounds = 6
68-th Successful Negotiation rounds = 8
69-th Successful Negotiation rounds = 5
70-th Successful Negotiation rounds = 1
71-th Successful Negotiation rounds = 8
72-th Successful Negotiation rounds = 9
73-th Successful Negotiation rounds = 6
74-th Successful Negotiation rounds = 6
75-th Successful Negotiation rounds = 5
76-th Successful Negotiation rounds = 7
77-th Successful Negotiation rounds = 10
78-th Successful Negotiation rounds = 4
79-th Successful Negotiation rounds = 4
80-th Successful Negotiation rounds = 6
81-th Successful Negotiation rounds = 7
82-th Successful Negotiation rounds = 6
83-th Successful Negotiation rounds = 8
84-th Successful Negotiation rounds = 8
85-th Successful Negotiation rounds = 5
86-th Successful Negotiation rounds = 8
87-th Successful Negotiation rounds = 10
88-th Successful Negotiation rounds = 6
89-th Successful Negotiation rounds = 7
90-th Successful Negotiation rounds = 5
91-th Successful Negotiation rounds = 1
92-th Successful Negotiation rounds = 5
93-th Successful Negotiation rounds = 10
94-th Successful Negotiation rounds = 3
95-th Successful Negotiation rounds = 6
96-th Successful Negotiation rounds = 1
97-th Successful Negotiation rounds = 5
98-th Successful Negotiation rounds = 1
99-th Successful Negotiation rounds = 6
100-th Successful Negotiation rounds = 5
101-th Successful Negotiation rounds = 14
102-th Successful Negotiation rounds = 6
103-th Successful Negotiation rounds = 4
104-th Successful Negotiation rounds = 4
105-th Successful Negotiation rounds = 5
106-th Successful Negotiation rounds = 5
107-th Successful Negotiation rounds = 4
108-th Successful Negotiation rounds = 1
109-th Successful Negotiation rounds = 9
110-th Successful Negotiation rounds = 8
111-th Successful Negotiation rounds = 5
112-th Successful Negotiation rounds = 8
113-th Successful Negotiation rounds = 5
114-th Successful Negotiation rounds = 5
115-th Successful Negotiation rounds = 5
116-th Successful Negotiation rounds = 5
117-th Successful Negotiation rounds = 4
118-th Successful Negotiation rounds = 8
119-th Successful Negotiation rounds = 12
120-th Successful Negotiation rounds = 1
121-th Successful Negotiation rounds = 1
122-th Successful Negotiation rounds = 8
123-th Successful Negotiation rounds = 1
124-th Successful Negotiation rounds = 7
125-th Successful Negotiation rounds = 1
126-th Successful Negotiation rounds = 1
127-th Successful Negotiation rounds = 5
128-th Successful Negotiation rounds = 4
129-th Successful Negotiation rounds = 8
130-th Successful Negotiation rounds = 6
131-th Successful Negotiation rounds = 10
132-th Successful Negotiation rounds = 6
133-th Successful Negotiation rounds = 1
134-th Successful Negotiation rounds = 11
135-th Successful Negotiation rounds = 7
136-th Successful Negotiation rounds = 5
137-th Successful Negotiation rounds = 7
138-th Successful Negotiation rounds = 1
139-th Successful Negotiation rounds = 9
140-th Successful Negotiation rounds = 7
141-th Successful Negotiation rounds = 7
142-th Successful Negotiation rounds = 16
143-th Successful Negotiation rounds = 6
144-th Successful Negotiation rounds = 5
145-th Successful Negotiation rounds = 5
146-th Successful Negotiation rounds = 6
147-th Successful Negotiation rounds = 5
148-th Successful Negotiation rounds = 8
149-th Successful Negotiation rounds = 5
150-th Successful Negotiation rounds = 4
151-th Successful Negotiation rounds = 7
152-th Successful Negotiation rounds = 7
153-th Successful Negotiation rounds = 9
154-th Successful Negotiation rounds = 1
155-th Successful Negotiation rounds = 10
156-th Successful Negotiation rounds = 12
157-th Successful Negotiation rounds = 1
158-th Successful Negotiation rounds = 1
159-th Successful Negotiation rounds = 7
160-th Successful Negotiation rounds = 1
161-th Successful Negotiation rounds = 4
162-th Successful Negotiation rounds = 9
163-th Successful Negotiation rounds = 4
164-th Successful Negotiation rounds = 5
165-th Successful Negotiation rounds = 6
166-th Successful Negotiation rounds = 8
167-th Successful Negotiation rounds = 7
168-th Successful Negotiation rounds = 8
169-th Successful Negotiation rounds = 5
170-th Successful Negotiation rounds = 12
171-th Successful Negotiation rounds = 7
172-th Successful Negotiation rounds = 5
173-th Successful Negotiation rounds = 7
174-th Successful Negotiation rounds = 7
175-th Successful Negotiation rounds = 10
176-th Successful Negotiation rounds = 6
177-th Successful Negotiation rounds = 7
178-th Successful Negotiation rounds = 7
179-th Successful Negotiation rounds = 9
180-th Successful Negotiation rounds = 1
181-th Successful Negotiation rounds = 7
182-th Successful Negotiation rounds = 11
183-th Successful Negotiation rounds = 5
184-th Successful Negotiation rounds = 6
185-th Successful Negotiation rounds = 1
186-th Successful Negotiation rounds = 7
187-th Successful Negotiation rounds = 13
188-th Successful Negotiation rounds = 5
189-th Successful Negotiation rounds = 11
190-th Successful Negotiation rounds = 1
191-th Successful Negotiation rounds = 7
192-th Successful Negotiation rounds = 5
193-th Successful Negotiation rounds = 10
194-th Successful Negotiation rounds = 1
195-th Successful Negotiation rounds = 7
196-th Successful Negotiation rounds = 1
197-th Successful Negotiation rounds = 4
198-th Successful Negotiation rounds = 1
199-th Successful Negotiation rounds = 16
200-th Successful Negotiation rounds = 4
201-th Successful Negotiation rounds = 8
202-th Successful Negotiation rounds = 6
203-th Successful Negotiation rounds = 1
204-th Successful Negotiation rounds = 6
205-th Successful Negotiation rounds = 7
206-th Successful Negotiation rounds = 1
207-th Successful Negotiation rounds = 5
208-th Successful Negotiation rounds = 1
209-th Successful Negotiation rounds = 7
210-th Successful Negotiation rounds = 5
211-th Successful Negotiation rounds = 1
212-th Successful Negotiation rounds = 6
213-th Successful Negotiation rounds = 10
214-th Successful Negotiation rounds = 10
215-th Successful Negotiation rounds = 7
216-th Successful Negotiation rounds = 13
217-th Successful Negotiation rounds = 15
218-th Successful Negotiation rounds = 7
219-th Successful Negotiation rounds = 1
220-th Successful Negotiation rounds = 4
221-th Successful Negotiation rounds = 8
222-th Successful Negotiation rounds = 5
223-th Successful Negotiation rounds = 5
224-th Successful Negotiation rounds = 3
225-th Successful Negotiation rounds = 1
226-th Successful Negotiation rounds = 11
227-th Successful Negotiation rounds = 9
228-th Successful Negotiation rounds = 9
229-th Successful Negotiation rounds = 15
230-th Successful Negotiation rounds = 4
231-th Successful Negotiation rounds = 8
232-th Successful Negotiation rounds = 5
233-th Successful Negotiation rounds = 9
234-th Successful Negotiation rounds = 3
235-th Successful Negotiation rounds = 1
236-th Successful Negotiation rounds = 9
237-th Successful Negotiation rounds = 5
238-th Successful Negotiation rounds = 7
239-th Successful Negotiation rounds = 5
240-th Successful Negotiation rounds = 1
241-th Successful Negotiation rounds = 1
242-th Successful Negotiation rounds = 7
243-th Successful Negotiation rounds = 1
244-th Successful Negotiation rounds = 7
245-th Successful Negotiation rounds = 1
246-th Successful Negotiation rounds = 8
247-th Successful Negotiation rounds = 2
248-th Successful Negotiation rounds = 1
249-th Successful Negotiation rounds = 7
250-th Successful Negotiation rounds = 6
251-th Successful Negotiation rounds = 1
252-th Successful Negotiation rounds = 7
253-th Successful Negotiation rounds = 17
254-th Successful Negotiation rounds = 5
255-th Successful Negotiation rounds = 6
256-th Successful Negotiation rounds = 15
257-th Successful Negotiation rounds = 6
258-th Successful Negotiation rounds = 1
259-th Successful Negotiation rounds = 4
260-th Successful Negotiation rounds = 1
261-th Successful Negotiation rounds = 8
262-th Successful Negotiation rounds = 1
263-th Successful Negotiation rounds = 6
264-th Successful Negotiation rounds = 1
265-th Successful Negotiation rounds = 6
266-th Successful Negotiation rounds = 6
