Number of Client who submitted request: 100

Configuration message number: 1563379
Template advertisement message number: 173228
Negotiation request message number: 5315
Negotiation message number: 125
Total client inquiry message: 4643

Total Registered service number: 24547
Avergate types of templates registered in gateways: 111
Gateway has no connection to any hosts: 16

The number of requests is: 271
The number of unprocessed requests is: 0
The negotiation fail, citizen didn't get the response number: 180
The negotiation success, citizen didn't get the response number: 31

Average Reponse Time in ms: 472653
Average Reponse Time in min: 7

Failure number: 200
Failure reason_Citizen has no connection to any gateway: 6
Failure reason_Gateway can't connect to the candidate provider: 4
Failure reason_Negotiation request forwarding exceed the limit: 0
Failure reason_Client inquiry message out of limit: 0
Failure reason_No suitable services: 2
Failure reason_Provider and user can't make an agreement: 5
Failure reason_Negotiation time out: 183
Failure reason_User QoS requirements don't match the advertised templates: 0
Failure reason_Unavailable negotiation interface: 0

Success number: 71
E2E average negotiation response time: 164 million seconds
E2E average negotiation rounds: 1
