Number of Client who submitted request: 100

Configuration message number: 98587
Template advertisement message number: 37637
Negotiation request message number: 764
Negotiation message number: 47
Total client inquiry message: 205

Total Registered service number: 11988
Avergate types of templates registered in gateways: 104
Gateway has no connection to any hosts: 7

The number of requests is: 271
The number of unprocessed requests is: 0
The negotiation fail, citizen didn't get the response number: 173
The negotiation success, citizen didn't get the response number: 2

Average Reponse Time in ms: 529248
Average Reponse Time in min: 8

Failure number: 258
Failure reason_Citizen has no connection to any gateway: 56
Failure reason_Gateway can't connect to the candidate provider: 0
Failure reason_Negotiation request forwarding exceed the limit: 0
Failure reason_Client inquiry message out of limit: 0
Failure reason_No suitable services: 0
Failure reason_Provider and user can't make an agreement: 3
Failure reason_Negotiation time out: 199
Failure reason_User QoS requirements don't match the advertised templates: 0
Failure reason_Unavailable negotiation interface: 0

Success number: 13
E2E average negotiation response time: 558 million seconds
E2E average negotiation rounds: 2
