"_ECHO 0m "============================="
_ECHO 0m "Nodes Initialization!"
StaticGateways 0m-1m ServiceNegotiationStaticComponent:setUpLogFile /home/fan/Desktop/impl/simonstrator-simrunner/NegotiatorData/testConfig/churn/mix/225GWs/150SPs/0_static/130Services
StaticGateways 1m-101m ServiceNegotiationStaticComponent:initializateGateway RANDOM
MobileGateways 1m-101m ServiceNegotiationMobileComponent:initializateGateway RANDOM
StaticProviders 101m-201m StaticProvider:initializateProvider
MobileProviders 101m-201m MobileProvider:initializateProvider
Citizens 201m-301m Consumer:initializateCitizen
_ECHO 230m "Publishing Services!"
StaticProviders 301m-1741m StaticProvider:advertiseServicesTemplates RANDOM 130 720 8
MobileProviders 301m-1741m MobileProvider:advertiseServicesTemplates RANDOM 130 720 8
StaticProviders 1741m-1801m StaticProvider:stopAdvertiseServicesTemplates
MobileProviders 1741m-1801m MobileProvider:stopAdvertiseServicesTemplates
StaticGateways 1801m-1951m ServiceNegotiationStaticComponent:showRegisteredTemplate
_ECHO 1900m "Negotiating Services!"
Citizens 1951m-2151m Consumer:startNegotiationRequests 60m 10
Citizens 2151m-2211m Consumer:stopOperation
_ECHO 3120m "Writing Metrics!"
Citizens 2241m-2246m Consumer:printResult /home/fan/Desktop/impl/simonstrator-simrunner/NegotiatorData/testConfig/churn/mix/225GWs/150SPs/0_static/130Services
