"_ECHO 0m "============================="
_ECHO 0m "Nodes Initialization!"
StaticGateways 0m-1m ServiceNegotiationStaticComponent:setUpLogFile /home/fan/Desktop/impl/simonstrator-simrunner/NegotiatorData/testConfig/churn/car/375GWs/250SPs/0_static/70Services
StaticGateways 1m-101m ServiceNegotiationStaticComponent:initializateGateway RANDOM
MobileGateways 1m-101m ServiceNegotiationMobileComponent:initializateGateway RANDOM
StaticProviders 101m-201m StaticProvider:initializateProvider
MobileProviders 101m-201m MobileProvider:initializateProvider
Citizens 201m-301m Consumer:initializateCitizen
_ECHO 230m "Publishing Services!"
StaticProviders 301m-1501m StaticProvider:advertiseServicesTemplates RANDOM 70 600 8
MobileProviders 301m-1501m MobileProvider:advertiseServicesTemplates RANDOM 70 600 8
StaticProviders 1501m-1561m StaticProvider:stopAdvertiseServicesTemplates
MobileProviders 1501m-1561m MobileProvider:stopAdvertiseServicesTemplates
StaticGateways 1561m-1811m ServiceNegotiationStaticComponent:showRegisteredTemplate
_ECHO 1900m "Negotiating Services!"
Citizens 1811m-2011m Consumer:startNegotiationRequests 60m 10
Citizens 2011m-2071m Consumer:stopOperation
_ECHO 3120m "Writing Metrics!"
Citizens 2101m-2106m Consumer:printResult /home/fan/Desktop/impl/simonstrator-simrunner/NegotiatorData/testConfig/churn/car/375GWs/250SPs/0_static/70Services
