Number of Client who submitted request: 100

Configuration message number: 693471
Template advertisement message number: 53710
Negotiation request message number: 6323
Negotiation message number: 76
Total client inquiry message: 5091

Total Registered service number: 10519
Avergate types of templates registered in gateways: 83
Gateway has no connection to any hosts: 23

The number of requests is: 271
The number of unprocessed requests is: 0
The negotiation fail, citizen didn't get the response number: 209
The negotiation success, citizen didn't get the response number: 12

Average Reponse Time in ms: 521576
Average Reponse Time in min: 8

Failure number: 242
Failure reason_Citizen has no connection to any gateway: 10
Failure reason_Gateway can't connect to the candidate provider: 6
Failure reason_Negotiation request forwarding exceed the limit: 0
Failure reason_Client inquiry message out of limit: 0
Failure reason_No suitable services: 6
Failure reason_Provider and user can't make an agreement: 4
Failure reason_Negotiation time out: 216
Failure reason_User QoS requirements don't match the advertised templates: 0
Failure reason_Unavailable negotiation interface: 0

Success number: 29
E2E average negotiation response time: 264 million seconds
E2E average negotiation rounds: 2
