0-th Successful Negotiation rounds = 1
1-th Successful Negotiation rounds = 4
2-th Successful Negotiation rounds = 10
3-th Successful Negotiation rounds = 4
4-th Successful Negotiation rounds = 5
5-th Successful Negotiation rounds = 7
6-th Successful Negotiation rounds = 10
7-th Successful Negotiation rounds = 11
8-th Successful Negotiation rounds = 7
9-th Successful Negotiation rounds = 6
10-th Successful Negotiation rounds = 6
11-th Successful Negotiation rounds = 12
12-th Successful Negotiation rounds = 8
13-th Successful Negotiation rounds = 7
14-th Successful Negotiation rounds = 1
15-th Successful Negotiation rounds = 4
16-th Successful Negotiation rounds = 6
17-th Successful Negotiation rounds = 6
18-th Successful Negotiation rounds = 1
19-th Successful Negotiation rounds = 5
20-th Successful Negotiation rounds = 14
21-th Successful Negotiation rounds = 11
22-th Successful Negotiation rounds = 5
23-th Successful Negotiation rounds = 8
24-th Successful Negotiation rounds = 8
25-th Successful Negotiation rounds = 14
26-th Successful Negotiation rounds = 7
27-th Successful Negotiation rounds = 7
28-th Successful Negotiation rounds = 5
29-th Successful Negotiation rounds = 8
30-th Successful Negotiation rounds = 3
31-th Successful Negotiation rounds = 7
32-th Successful Negotiation rounds = 11
33-th Successful Negotiation rounds = 5
34-th Successful Negotiation rounds = 7
35-th Successful Negotiation rounds = 6
36-th Successful Negotiation rounds = 5
37-th Successful Negotiation rounds = 8
38-th Successful Negotiation rounds = 1
39-th Successful Negotiation rounds = 5
40-th Successful Negotiation rounds = 1
41-th Successful Negotiation rounds = 2
42-th Successful Negotiation rounds = 10
43-th Successful Negotiation rounds = 5
44-th Successful Negotiation rounds = 11
45-th Successful Negotiation rounds = 10
46-th Successful Negotiation rounds = 13
47-th Successful Negotiation rounds = 5
48-th Successful Negotiation rounds = 4
49-th Successful Negotiation rounds = 10
50-th Successful Negotiation rounds = 1
51-th Successful Negotiation rounds = 5
52-th Successful Negotiation rounds = 4
53-th Successful Negotiation rounds = 6
54-th Successful Negotiation rounds = 7
55-th Successful Negotiation rounds = 7
56-th Successful Negotiation rounds = 11
57-th Successful Negotiation rounds = 6
58-th Successful Negotiation rounds = 5
59-th Successful Negotiation rounds = 7
60-th Successful Negotiation rounds = 6
61-th Successful Negotiation rounds = 6
62-th Successful Negotiation rounds = 6
63-th Successful Negotiation rounds = 5
64-th Successful Negotiation rounds = 6
65-th Successful Negotiation rounds = 11
66-th Successful Negotiation rounds = 5
67-th Successful Negotiation rounds = 4
68-th Successful Negotiation rounds = 7
69-th Successful Negotiation rounds = 6
70-th Successful Negotiation rounds = 6
71-th Successful Negotiation rounds = 7
72-th Successful Negotiation rounds = 5
73-th Successful Negotiation rounds = 11
74-th Successful Negotiation rounds = 5
75-th Successful Negotiation rounds = 6
76-th Successful Negotiation rounds = 6
77-th Successful Negotiation rounds = 5
78-th Successful Negotiation rounds = 1
79-th Successful Negotiation rounds = 6
80-th Successful Negotiation rounds = 7
81-th Successful Negotiation rounds = 5
82-th Successful Negotiation rounds = 9
83-th Successful Negotiation rounds = 8
84-th Successful Negotiation rounds = 1
85-th Successful Negotiation rounds = 7
86-th Successful Negotiation rounds = 4
87-th Successful Negotiation rounds = 6
88-th Successful Negotiation rounds = 7
89-th Successful Negotiation rounds = 7
90-th Successful Negotiation rounds = 7
91-th Successful Negotiation rounds = 6
92-th Successful Negotiation rounds = 7
93-th Successful Negotiation rounds = 10
94-th Successful Negotiation rounds = 12
95-th Successful Negotiation rounds = 6
96-th Successful Negotiation rounds = 4
97-th Successful Negotiation rounds = 6
98-th Successful Negotiation rounds = 5
99-th Successful Negotiation rounds = 4
100-th Successful Negotiation rounds = 15
101-th Successful Negotiation rounds = 4
102-th Successful Negotiation rounds = 5
103-th Successful Negotiation rounds = 5
104-th Successful Negotiation rounds = 5
105-th Successful Negotiation rounds = 7
106-th Successful Negotiation rounds = 6
107-th Successful Negotiation rounds = 1
108-th Successful Negotiation rounds = 11
109-th Successful Negotiation rounds = 9
110-th Successful Negotiation rounds = 12
111-th Successful Negotiation rounds = 7
112-th Successful Negotiation rounds = 8
113-th Successful Negotiation rounds = 1
114-th Successful Negotiation rounds = 5
115-th Successful Negotiation rounds = 3
116-th Successful Negotiation rounds = 1
117-th Successful Negotiation rounds = 5
118-th Successful Negotiation rounds = 11
119-th Successful Negotiation rounds = 8
120-th Successful Negotiation rounds = 6
121-th Successful Negotiation rounds = 11
122-th Successful Negotiation rounds = 6
123-th Successful Negotiation rounds = 10
124-th Successful Negotiation rounds = 8
125-th Successful Negotiation rounds = 5
126-th Successful Negotiation rounds = 4
127-th Successful Negotiation rounds = 7
128-th Successful Negotiation rounds = 7
129-th Successful Negotiation rounds = 6
130-th Successful Negotiation rounds = 7
131-th Successful Negotiation rounds = 1
132-th Successful Negotiation rounds = 6
133-th Successful Negotiation rounds = 9
134-th Successful Negotiation rounds = 9
135-th Successful Negotiation rounds = 7
136-th Successful Negotiation rounds = 5
137-th Successful Negotiation rounds = 8
138-th Successful Negotiation rounds = 1
