"_ECHO 0m "============================="
_ECHO 0m "Nodes Initialization!"
StaticGateways 0m-1m ServiceNegotiationStaticComponent:setUpLogFile /home/fan/Desktop/impl/simonstrator-simrunner/NegotiatorData/testConfig/churn/static/375GWs/250SPs/50_static/10Services
StaticGateways 1m-101m ServiceNegotiationStaticComponent:initializateGateway RANDOM
MobileGateways 1m-101m ServiceNegotiationMobileComponent:initializateGateway RANDOM
StaticProviders 101m-201m StaticProvider:initializateProvider
MobileProviders 101m-201m MobileProvider:initializateProvider
Citizens 201m-301m Consumer:initializateCitizen
_ECHO 230m "Publishing Services!"
StaticProviders 301m-701m StaticProvider:advertiseServicesTemplates RANDOM 10 200 8
MobileProviders 301m-701m MobileProvider:advertiseServicesTemplates RANDOM 10 200 8
StaticProviders 701m-761m StaticProvider:stopAdvertiseServicesTemplates
MobileProviders 701m-761m MobileProvider:stopAdvertiseServicesTemplates
StaticGateways 761m-1011m ServiceNegotiationStaticComponent:showRegisteredTemplate
_ECHO 1900m "Negotiating Services!"
Citizens 1011m-1211m Consumer:startNegotiationRequests 60m 10
Citizens 1211m-1271m Consumer:stopOperation
_ECHO 3120m "Writing Metrics!"
Citizens 1301m-1306m Consumer:printResult /home/fan/Desktop/impl/simonstrator-simrunner/NegotiatorData/testConfig/churn/static/375GWs/250SPs/50_static/10Services
