"_ECHO 0m "============================="
_ECHO 0m "Nodes Initialization!"
StaticGateways 0m-1m ServiceNegotiationStaticComponent:setUpLogFile /home/fan/Desktop/impl/simonstrator-simrunner/NegotiatorData/testConfig/churn/bike/75GWs/50SPs/50_static/70Services
StaticGateways 1m-101m ServiceNegotiationStaticComponent:initializateGateway RANDOM
MobileGateways 1m-101m ServiceNegotiationMobileComponent:initializateGateway RANDOM
StaticProviders 101m-201m StaticProvider:initializateProvider
MobileProviders 101m-201m MobileProvider:initializateProvider
Citizens 201m-301m Consumer:initializateCitizen
_ECHO 230m "Publishing Services!"
StaticProviders 301m-541m StaticProvider:advertiseServicesTemplates RANDOM 70 120 8
MobileProviders 301m-541m MobileProvider:advertiseServicesTemplates RANDOM 70 120 8
StaticProviders 541m-601m StaticProvider:stopAdvertiseServicesTemplates
MobileProviders 541m-601m MobileProvider:stopAdvertiseServicesTemplates
StaticGateways 601m-651m ServiceNegotiationStaticComponent:showRegisteredTemplate
_ECHO 1900m "Negotiating Services!"
Citizens 651m-851m Consumer:startNegotiationRequests 60m 10
Citizens 851m-911m Consumer:stopOperation
_ECHO 3120m "Writing Metrics!"
Citizens 941m-946m Consumer:printResult /home/fan/Desktop/impl/simonstrator-simrunner/NegotiatorData/testConfig/churn/bike/75GWs/50SPs/50_static/70Services
