0-th Successful Response time = 580 millionSeconds
1-th Successful Response time = 0 millionSeconds
2-th Successful Response time = 0 millionSeconds
3-th Successful Response time = 0 millionSeconds
4-th Successful Response time = 4232 millionSeconds
5-th Successful Response time = 0 millionSeconds
6-th Successful Response time = 0 millionSeconds
7-th Successful Response time = 1340 millionSeconds
8-th Successful Response time = 3383 millionSeconds
9-th Successful Response time = 0 millionSeconds
10-th Successful Response time = 0 millionSeconds
11-th Successful Response time = 0 millionSeconds
12-th Successful Response time = 0 millionSeconds
13-th Successful Response time = 0 millionSeconds
14-th Successful Response time = 0 millionSeconds
15-th Successful Response time = 1147 millionSeconds
16-th Successful Response time = 0 millionSeconds
17-th Successful Response time = 0 millionSeconds
