0-th Successful Negotiation rounds = 5
1-th Successful Negotiation rounds = 10
2-th Successful Negotiation rounds = 8
3-th Successful Negotiation rounds = 11
4-th Successful Negotiation rounds = 7
5-th Successful Negotiation rounds = 11
6-th Successful Negotiation rounds = 1
7-th Successful Negotiation rounds = 11
8-th Successful Negotiation rounds = 5
9-th Successful Negotiation rounds = 9
10-th Successful Negotiation rounds = 9
11-th Successful Negotiation rounds = 6
12-th Successful Negotiation rounds = 4
13-th Successful Negotiation rounds = 6
14-th Successful Negotiation rounds = 7
15-th Successful Negotiation rounds = 7
16-th Successful Negotiation rounds = 7
17-th Successful Negotiation rounds = 12
18-th Successful Negotiation rounds = 1
19-th Successful Negotiation rounds = 5
20-th Successful Negotiation rounds = 1
21-th Successful Negotiation rounds = 5
22-th Successful Negotiation rounds = 7
23-th Successful Negotiation rounds = 7
24-th Successful Negotiation rounds = 8
25-th Successful Negotiation rounds = 1
26-th Successful Negotiation rounds = 1
27-th Successful Negotiation rounds = 1
28-th Successful Negotiation rounds = 1
29-th Successful Negotiation rounds = 9
30-th Successful Negotiation rounds = 8
31-th Successful Negotiation rounds = 9
32-th Successful Negotiation rounds = 8
33-th Successful Negotiation rounds = 9
34-th Successful Negotiation rounds = 8
35-th Successful Negotiation rounds = 5
36-th Successful Negotiation rounds = 6
37-th Successful Negotiation rounds = 6
38-th Successful Negotiation rounds = 8
39-th Successful Negotiation rounds = 6
40-th Successful Negotiation rounds = 7
41-th Successful Negotiation rounds = 12
42-th Successful Negotiation rounds = 6
43-th Successful Negotiation rounds = 7
44-th Successful Negotiation rounds = 4
45-th Successful Negotiation rounds = 6
46-th Successful Negotiation rounds = 7
47-th Successful Negotiation rounds = 1
48-th Successful Negotiation rounds = 7
49-th Successful Negotiation rounds = 1
50-th Successful Negotiation rounds = 5
51-th Successful Negotiation rounds = 8
52-th Successful Negotiation rounds = 7
53-th Successful Negotiation rounds = 7
54-th Successful Negotiation rounds = 5
55-th Successful Negotiation rounds = 6
56-th Successful Negotiation rounds = 10
57-th Successful Negotiation rounds = 11
58-th Successful Negotiation rounds = 6
59-th Successful Negotiation rounds = 6
60-th Successful Negotiation rounds = 13
61-th Successful Negotiation rounds = 10
62-th Successful Negotiation rounds = 12
63-th Successful Negotiation rounds = 8
64-th Successful Negotiation rounds = 5
65-th Successful Negotiation rounds = 4
66-th Successful Negotiation rounds = 6
67-th Successful Negotiation rounds = 5
68-th Successful Negotiation rounds = 1
69-th Successful Negotiation rounds = 1
70-th Successful Negotiation rounds = 6
71-th Successful Negotiation rounds = 12
72-th Successful Negotiation rounds = 1
73-th Successful Negotiation rounds = 1
74-th Successful Negotiation rounds = 7
75-th Successful Negotiation rounds = 4
76-th Successful Negotiation rounds = 7
77-th Successful Negotiation rounds = 1
78-th Successful Negotiation rounds = 1
79-th Successful Negotiation rounds = 8
80-th Successful Negotiation rounds = 5
81-th Successful Negotiation rounds = 7
82-th Successful Negotiation rounds = 8
83-th Successful Negotiation rounds = 10
84-th Successful Negotiation rounds = 7
85-th Successful Negotiation rounds = 5
86-th Successful Negotiation rounds = 6
87-th Successful Negotiation rounds = 8
88-th Successful Negotiation rounds = 1
89-th Successful Negotiation rounds = 4
90-th Successful Negotiation rounds = 8
91-th Successful Negotiation rounds = 1
92-th Successful Negotiation rounds = 9
93-th Successful Negotiation rounds = 6
94-th Successful Negotiation rounds = 7
95-th Successful Negotiation rounds = 9
96-th Successful Negotiation rounds = 6
97-th Successful Negotiation rounds = 5
98-th Successful Negotiation rounds = 6
99-th Successful Negotiation rounds = 5
100-th Successful Negotiation rounds = 6
