"_ECHO 0m "============================="
_ECHO 0m "Nodes Initialization!"
StaticGateways 0m-1m ServiceNegotiationStaticComponent:setUpLogFile /home/fan/Desktop/impl/simonstrator-simrunner/NegotiatorData/testConfig/churn/mix/225GWs/50SPs/50_static/10Services
StaticGateways 1m-101m ServiceNegotiationStaticComponent:initializateGateway RANDOM
MobileGateways 1m-101m ServiceNegotiationMobileComponent:initializateGateway RANDOM
StaticProviders 101m-201m StaticProvider:initializateProvider
MobileProviders 101m-201m MobileProvider:initializateProvider
Citizens 201m-301m Consumer:initializateCitizen
_ECHO 230m "Publishing Services!"
StaticProviders 301m-381m StaticProvider:advertiseServicesTemplates RANDOM 10 40 8
MobileProviders 301m-381m MobileProvider:advertiseServicesTemplates RANDOM 10 40 8
StaticProviders 381m-441m StaticProvider:stopAdvertiseServicesTemplates
MobileProviders 381m-441m MobileProvider:stopAdvertiseServicesTemplates
StaticGateways 441m-591m ServiceNegotiationStaticComponent:showRegisteredTemplate
_ECHO 1900m "Negotiating Services!"
Citizens 591m-791m Consumer:startNegotiationRequests 60m 10
Citizens 791m-851m Consumer:stopOperation
_ECHO 3120m "Writing Metrics!"
Citizens 881m-886m Consumer:printResult /home/fan/Desktop/impl/simonstrator-simrunner/NegotiatorData/testConfig/churn/mix/225GWs/50SPs/50_static/10Services
